{
  "students": [
    {
      "id": "1",
      "name": "John Smith",
      "email": "john@example.com",
      "namn": "John Doe",
      "utbildning": "JavaScript",
      "stad": "Stockholm"
    }
  ],
  "companies": [
    {
      "id": "1",
      "email": "hej@example.com",
      "namn": "Konsum",
      "utbildning": "JavaScript",
      "stad": "Göteborg"
    },
    {
      "namn": "John Doe",
      "email": "hej@example.com",
      "utbildning": "Java",
      "stad": "Stockholm",
      "id": "ovSVPSM"
    }
  ],
  "schools": [
    {
      "namn": "Ec-utbildning",
      "email": "bajs@example.ser",
      "utbildning": "Java",
      "stad": "Stockholm",
      "id": 1
    }
  ]
}